…
    ##  6 RM4   2,6-Di-t-butyl-4- methylphenol   <NA>       128-… 1.828 2.143 1.810    
    ##  7 RM5   2,4-Di-t-butyl phenol            <NA>       96-7… 1.000 1.000 1.000    
    ##  8 RM6   2,4-Dimethylphenol               <NA>       105-… 0.710 0.377 0.424    
    ##  9 RM7   3-tert-Butyl-4-hydroxyanisole    <NA>       2501… 0.606 0.506 0.583    
    ## 10 RM8   Di-(2-ethylhexyl)phthalate       <NA>       117-… 0.823 0.824 0.838    
    ## 11 RM9   Dibutylphthalate                 <NA>       84-7… 0.713 0.744 0.822    
    ## 12 RM10  Diphenyl phthalate               <NA>       84-6… 0.180 0.437 0.676    
    ## 13 RM11  Benzyl butyl phthalate           <NA>       85-6… 0.364 0.383 0.476    
    ## 14 RM12  Tris (2-ethylhexyl) trimellitate <NA>       3319… 0.503 0.470 0.525    
    ## 15 RM13  Caprolactam                      <NA>       105-… 0.214 0.289 0.413    
    ## 16 RM14  Bisphenol A                      <NA>       80-0… 0.066 0.241 0.314    
    ## 17 RM15  Erucamide                        <NA>       112-… 0.143 0.165 0.086    
    ## 
    ## [[2]]
    ## # A tibble: 26 × 5
    ##    ...1  ...2               ...3         ...4       `RRF from GCMS (TIC)`       
    ##    <chr> <chr>              <chr>        <chr>      <chr>                       
    ##  1 Code  <NA>               Trivial Name CAS #      (Positive Ion Detection Mod…
    ##  2 <NA>  <NA>               <NA>         <NA>       5 μg/mL 10 μg/mL 20 μg/mL   
    ##  3 RM16  Oleamide           <NA>         301-02-0   0.033 0.035 0.040           
    ##  4 RM17  Butyl stearate     <NA>         123-95-5   0.295 0.288 0.275           
    ##  5 RM18  Tinuvin 320        <NA>         3846-71-7  0.182 0.575 0.723           
    ##  6 RM19  D4 siloxane        <NA>         556-67-2   1.262 1.828 1.537           
    ##  7 RM20  D6 Siloxane        <NA>         540-97-6   1.076 0.773 1.134           
    ##  8 RM21  Diisobutyl adipate <NA>         141-04-8   0.663 0.609 0.625           
    ##  9 RM22  Diisooctyl azelate <NA>         26544-17-2 n.d. n.d. n.d.              
    ## 10 RM23  Dibutyl sebacate   <NA>         109-43-3   0.377 0.393 0.451           
    ## # ℹ 16 more rows
    ## 
    ## [[3]]
    ## # A tibble: 26 × 4
    ##    ...1  ...2                    ...3     `RRF from GCMS (TIC)`        
    ##    <chr> <chr>                   <chr>    <chr>                        
    ##  1 Code  Trivial Name            CAS #    (Positive Ion Detection Mode)
    ##  2 <NA>  <NA>                    <NA>     5 μg/mL 10 μg/mL 20 μg/mL    
    ##  3 RM47  Lauramide DEA           120-40-1 n.d. n.d. n.d.               
    ##  4 RM48  Monostearin             123-94-4 n.d. n.d. n.d.               
    ##  5 RM49  Benzothiazole           95-16-9  0.863 0.891 0.857            
    ##  6 RM50  BDMA                    103-83-3 1.530 1.467 1.358            
    ##  7 RM51  4-tert-Butylphenol      98-54-4  0.687 0.724 0.737            
    ##  8 RM52  4-tert-Amylphenol       80-46-6  0.615 0.527 0.606            
    ##  9 RM53  4,4'-Methylenedianiline 101-77-9 0.142 0.243 0.377            
    ## 10 RM55  CBS                     95-33-0  0.104 0.107 0.149            
    ## # ℹ 16 more rows
    ## 
    ## [[4]]
    ## # A tibble: 27 × 5
    ##    ...1  ...2                                ...3    ...4  `RRF from GCMS (TIC)`
    ##    <chr> <chr>                               <chr>   <chr> <chr>                
    ##  1 Code  <NA>                                Trivia… CAS # (Positive Ion Detect…
    ##  2 <NA>  <NA>                                <NA>    <NA>  5 μg/mL 10 μg/mL 20 …
    ##  3 RM73  DOTP                                <NA>    6422… 0.266 0.292 0.265    
    ##  4 RM74  Acetyltributyl citrate              <NA>    77-9… 0.333 0.356 0.347    
    ##  5 RM75  Dioctyl azelate                     <NA>    2064… 0.042 0.038 0.037    
    ##  6 RM76  Bis(2-ethylhexyl)sebacate           <NA>    122-… 0.175 0.286 0.238    
    ##  7 RM77  Diisononyl phthalate                <NA>    2855… below DL below DL be…
    ##  8 RM79  Diisodecyl adipate                  <NA>    2717… n.d. n.d. n.d.       
    ##  9 RM80  Dicyclohexyl phthalate              <NA>    84-6… 0.510 0.527 0.443    
    ## 10 RM83  di(2-ethylhexyl) hexahydrophthalate <NA>    84-7… 0.277 0.294 0.274    
    ## # ℹ 17 more rows
    ## 
    ## [[5]]
…
# GC/MS data

``` r
gcms_clap <- read_excel( 
  path = "processed_data/GCMS.xlsx", 
  sheet = "GC-MS")

gcms_clap_clean <- gcms_clap %>%
  na.omit()

gcms_clap_clean
```

    ## # A tibble: 92 × 6
    ##    Code  `Trivial Name`                 `CAS #`  `5 µg/mL` `10 µg/mL` `20 µg/mL`
    ##    <chr> <chr>                          <chr>        <dbl>      <dbl>      <dbl>
    ##  1 RM1   Irganox 1010                   6683-19…     0          0          0    
    ##  2 RM2   Irganox 1076                   2082-79…     0.326      0.434      0.336
    ##  3 RM3   Irgafos 168                    31570-0…     0.414      0.393      0.281
    ##  4 RM4   2,6-Di-t-butyl-4- methylphenol 128-37-0     1.83       2.14       1.81 
    ##  5 RM5   2,4-Di-t-butyl phenol          96-76-4      1          1          1    
    ##  6 RM6   2,4-Dimethylphenol             105-67-9     0.71       0.377      0.424
    ##  7 RM7   3-tert-Butyl-4-hydroxyanisole  25013-1…     0.606      0.506      0.583
    ##  8 RM8   Di-(2-ethylhexyl)phthalate     117-81-7     0.823      0.824      0.838
    ##  9 RM9   Dibutylphthalate               84-74-2      0.713      0.744      0.822
    ## 10 RM10  Diphenyl phthalate             84-62-8      0.18       0.437      0.676
    ## # ℹ 82 more rows
…
# LC/MS neg data

``` r
lcmsneg_clap <- read_excel( 
  path = "processed_data/LCMS.xlsx", 
  sheet = "LCMSNEG")

lcmsneg_clap_clean <- lcmsneg_clap %>%
  na.omit()

lcmsneg_clap_clean
```

    ## # A tibble: 28 × 6
    ##    Code  `Trivial Name`             `CAS #`   `5 µg/mL` `10 µg/mL` `20 µg/mL`
    ##    <chr> <chr>                      <chr>         <dbl>      <dbl>      <dbl>
    ##  1 RM2   Irganox 1076               2082-79-3     0          0          0    
    ##  2 RM4   Butylated hydroxytoluene   128-37-0      0.001      0.001      0.001
    ##  3 RM5   2,4-di-tert-butylphenol    96-76-4       0.001      0.001      0.001
    ##  4 RM8   Di-(2-ethylhexyl)phthalate 117-81-7      0          0          0    
    ##  5 RM13  Caprolactam                105-60-2      0          0          0    
    ##  6 RM14  Bisphenol A                80-05-7       0          0          0    
    ##  7 RM15  Erucamide                  112-84-5      0          0          0    
    ##  8 RM16  Oleamide                   301-02-0      0          0          0    
    ##  9 RM25  Dibenzylamine              103-49-1      0          0          0    
    ## 10 RM26  Benzoic acid               65-85-0       0          0          0    
    ## # ℹ 18 more rows
…
