Scenario 1A (5 µg/mL)
…
Data for RRFs are coming from the US FDA Clap List. https://cdrh-rst.fda.gov/chemicals-list-analytical-performance-clap

Each file is in a pdf format and contains RRF values for 3 concentration of a surrogate. LCMS RRFs CLAP Negative Ion Detection.pdf (255.54 KB) LCMS RRFs CLAP Positive Ion Detection.pdf (279.48 KB) RRF GCMS for CLAP.pdf (322.77 KB)

They are first extracted to perform the bootstrap simulation. Some data are n.d. or below DL. The current strategy is to change the n.d. to 0 and below DL to 0.001 based on the input of the Subject Matter Expert.

    Expand

# A tibble: 92 × 6
   Code  `Trivial Name`                 `CAS #`  `5 µg/mL` `10 µg/mL` `20 µg/mL`
   <chr> <chr>                          <chr>        <dbl>      <dbl>      <dbl>
 1 RM1   Irganox 1010                   6683-19…     0          0          0    
 2 RM2   Irganox 1076                   2082-79…     0.326      0.434      0.336
 3 RM3   Irgafos 168                    31570-0…     0.414      0.393      0.281
 4 RM4   2,6-Di-t-butyl-4- methylphenol 128-37-0     1.83       2.14       1.81 
 5 RM5   2,4-Di-t-butyl phenol          96-76-4      1          1          1    
 6 RM6   2,4-Dimethylphenol             105-67-9     0.71       0.377      0.424
 7 RM7   3-tert-Butyl-4-hydroxyanisole  25013-1…     0.606      0.506      0.583
 8 RM8   Di-(2-ethylhexyl)phthalate     117-81-7     0.823      0.824      0.838
 9 RM9   Dibutylphthalate               84-74-2      0.713      0.744      0.822
10 RM10  Diphenyl phthalate             84-62-8      0.18       0.437      0.676
# ℹ 82 more rows
…
    Expand

# A tibble: 28 × 6
   Code  `Trivial Name`             `CAS #`   `5 µg/mL` `10 µg/mL` `20 µg/mL`
   <chr> <chr>                      <chr>         <dbl>      <dbl>      <dbl>
 1 RM2   Irganox 1076               2082-79-3     0          0          0    
 2 RM4   Butylated hydroxytoluene   128-37-0      0.001      0.001      0.001
 3 RM5   2,4-di-tert-butylphenol    96-76-4       0.001      0.001      0.001
 4 RM8   Di-(2-ethylhexyl)phthalate 117-81-7      0          0          0    
 5 RM13  Caprolactam                105-60-2      0          0          0    
 6 RM14  Bisphenol A                80-05-7       0          0          0    
 7 RM15  Erucamide                  112-84-5      0          0          0    
 8 RM16  Oleamide                   301-02-0      0          0          0    
 9 RM25  Dibenzylamine              103-49-1      0          0          0    
10 RM26  Benzoic acid               65-85-0       0          0          0    
# ℹ 18 more rows
…
